position_target_global,values_x,values_y,values_z,maxDistance,
position_target_global,values_x,values_y,values_z,maxDistance,
position_target_global,values_x,values_y,values_z,maxDistance,
0.0 0.5 0.1,-0.10000000149011612 -0.09000000357627869 -0.07999999821186066 -0.07000000029802322 -0.06000000238418579 -0.05000000447034836 -0.04000000283122063 -0.030000001192092896 -0.020000003278255463 -0.01000000536441803 -7.450580596923828e-09 0.009999997913837433 0.019999995827674866 0.0299999937415123 0.03999999910593033 0.049999989569187164 0.059999994933605194 0.07000000029802322 0.07999999076128006 0.08999999612569809 0.09999998658895493,0.4000000059604645 0.4099999964237213 0.42000001668930054 0.4300000071525574 0.4399999976158142 0.45000001788139343 0.46000000834465027 0.4700000286102295 0.48000001907348633 0.49000000953674316 0.5 0.5099999904632568 0.5199999809265137 0.5300000309944153 0.5400000214576721 0.550000011920929 0.5600000023841858 0.5700000524520874 0.5800000429153442 0.5900000333786011 0.6000000238418579,0.09000000357627869 0.10000000149011612 0.10999999940395355 0.12000000476837158 0.12999999523162842 0.14000000059604645 0.15000000596046448 0.1599999964237213 0.17000000178813934 0.18000000715255737 0.1899999976158142 0.20000000298023224,0.020099999383091927
